8º PERÍODO/SISTEMA DIGITAIS/PROBLEMA 1 - IMPLEMENTACAO/simulation/qsim/ANS_MACHINE.msim.vcd
$comment
	File created using the following command:
		vcd file ANS_MACHINE.msim.vcd -direction
$end
$date
	Sat Jan 30 11:35:39 2021
$end
$version
	ModelSim Version 10.1d
$end
$timescale
	1ps
$end
$scope module MUX_S_vlg_vec_tst $end
$var reg 8 ! ENTA_S [7:0] $end
$var reg 8 " ENTB_S [7:0] $end
$var reg 1 # SEL_S $end
$var wire 1 $ S_S [7] $end
$var wire 1 % S_S [6] $end
$var wire 1 & S_S [5] $end
$var wire 1 ' S_S [4] $end
$var wire 1 ( S_S [3] $end
$var wire 1 ) S_S [2] $end
$var wire 1 * S_S [1] $end
$var wire 1 + S_S [0] $end
$var wire 1 , sampler $end
$scope module i1 $end
$var wire 1 - gnd $end
$var wire 1 . vcc $end
$var wire 1 / unknown $end
$var tri1 1 0 devclrn $end
$var tri1 1 1 devpor $end
$var tri1 1 2 devoe $end
$var wire 1 3 S_S[0]~output_o $end
$var wire 1 4 S_S[1]~output_o $end
$var wire 1 5 S_S[2]~output_o $end
$var wire 1 6 S_S[3]~output_o $end
$var wire 1 7 S_S[4]~output_o $end
$var wire 1 8 S_S[5]~output_o $end
$var wire 1 9 S_S[6]~output_o $end
$var wire 1 : S_S[7]~output_o $end
$var wire 1 ; ENTB_S[0]~input_o $end
$var wire 1 < ENTA_S[0]~input_o $end
$var wire 1 = SEL_S~input_o $end
$var wire 1 > M0|Saida~0_combout $end
$var wire 1 ? ENTB_S[1]~input_o $end
$var wire 1 @ ENTA_S[1]~input_o $end
$var wire 1 A M1|Saida~0_combout $end
$var wire 1 B ENTB_S[2]~input_o $end
$var wire 1 C ENTA_S[2]~input_o $end
$var wire 1 D M2|Saida~0_combout $end
$var wire 1 E ENTB_S[3]~input_o $end
$var wire 1 F ENTA_S[3]~input_o $end
$var wire 1 G M3|Saida~0_combout $end
$var wire 1 H ENTB_S[4]~input_o $end
$var wire 1 I ENTA_S[4]~input_o $end
$var wire 1 J M4|Saida~0_combout $end
$var wire 1 K ENTB_S[5]~input_o $end
$var wire 1 L ENTA_S[5]~input_o $end
$var wire 1 M M5|Saida~0_combout $end
$var wire 1 N ENTB_S[6]~input_o $end
$var wire 1 O ENTA_S[6]~input_o $end
$var wire 1 P M6|Saida~0_combout $end
$var wire 1 Q ENTB_S[7]~input_o $end
$var wire 1 R ENTA_S[7]~input_o $end
$var wire 1 S M7|Saida~0_combout $end
$upscope $end
$upscope $end
$enddefinitions $end
#0
$dumpvars
b0 !
b0 "
0#
0+
0*
0)
0(
0'
0&
0%
0$
x,
0-
1.
x/
10
11
12
03
04
05
06
07
08
09
0:
0;
0<
0=
0>
0?
0@
0A
0B
0C
0D
0E
0F
0G
0H
0I
0J
0K
0L
0M
0N
0O
0P
0Q
0R
0S
$end
#70000
b1000 !
b1100 !
b1110 !
b1111 !
b100 "
b110 "
1?
1B
1<
1@
1C
1F
0,
1A
1D
1>
1G
14
15
13
16
1*
1)
1+
1(
#80000
1#
1=
1,
0G
0>
06
03
0(
0+
#150000
0#
0=
0,
1G
1>
16
13
1(
1+
#160000
b111 !
b11 !
b1 !
b0 !
b10 "
b0 "
0?
0B
0<
0@
0C
0F
1,
0A
0D
0>
0G
04
05
03
06
0*
0)
0+
0(
#170000
b10 !
1@
0,
1A
14
1*
#180000
1#
1=
1,
0A
04
0*
#370000
b0 !
0#
0@
0=
0,
